{
    "prepare_queue": {
        "installed": [],
        "uninstalled": []
    },
    "config_munge": {
        "files": {
            "framework": {
                "parents": {
                    "libiconv.dylib": [
                        {
                            "xml": "false",
                            "count": 1
                        }
                    ],
                    "AVFoundation.framework": [
                        {
                            "xml": "false",
                            "count": 1
                        },
                        {
                            "xml": "true",
                            "count": 1
                        }
                    ],
                    "AssetsLibrary.framework": [
                        {
                            "xml": "false",
                            "count": 1
                        }
                    ],
                    "CoreVideo.framework": [
                        {
                            "xml": "false",
                            "count": 1
                        }
                    ],
                    "QuartzCore.framework": [
                        {
                            "xml": "false",
                            "count": 1
                        }
                    ],
                    "Social.framework": [
                        {
                            "xml": "true",
                            "count": 1
                        }
                    ],
                    "MessageUI.framework": [
                        {
                            "xml": "true",
                            "count": 1
                        }
                    ],
                    "CoreLocation.framework": [
                        {
                            "xml": "false",
                            "count": 1
                        }
                    ],
                    "AudioToolbox.framework": [
                        {
                            "xml": "true",
                            "count": 2
                        }
                    ]
                }
            },
            "config.xml": {
                "parents": {
                    "/*": [
                        {
                            "xml": "<feature name=\"BarcodeScanner\"><param name=\"ios-package\" value=\"CDVBarcodeScanner\" /></feature>",
                            "count": 1
                        },
                        {
                            "xml": "<feature name=\"SocialSharing\"><param name=\"ios-package\" value=\"SocialSharing\" /><param name=\"onload\" value=\"true\" /></feature>",
                            "count": 1
                        },
                        {
                            "xml": "<feature name=\"Geolocation\"><param name=\"ios-package\" value=\"CDVLocation\" /></feature>",
                            "count": 1
                        },
                        {
                            "xml": "<feature name=\"Notification\"><param name=\"ios-package\" value=\"CDVNotification\" /></feature>",
                            "count": 1
                        },
                        {
                            "xml": "<feature name=\"BackgroundGeoLocation\"><param name=\"ios-package\" value=\"CDVBackgroundGeoLocation\" /></feature>",
                            "count": 1
                        },
                        {
                            "xml": "<feature name=\"Device\"><param name=\"ios-package\" value=\"CDVDevice\" /></feature>",
                            "count": 1
                        },
                        {
                            "xml": "<feature name=\"BackgroundMode\"><param name=\"ios-package\" value=\"APPBackgroundMode\" /></feature>",
                            "count": 1
                        }
                    ]
                }
            },
            "*-Info.plist": {
                "parents": {
                    "NSLocationWhenInUseUsageDescription": [
                        {
                            "xml": "<string />",
                            "count": 1
                        }
                    ],
                    "NSLocationAlwaysUsageDescription": [
                        {
                            "xml": "<string>This app requires background location tracking</string>",
                            "count": 1
                        }
                    ],
                    "UIBackgroundModes": [
                        {
                            "xml": "<array><string>location</string></array>",
                            "count": 1
                        },
                        {
                            "xml": "<array><string>audio</string></array>",
                            "count": 1
                        }
                    ]
                }
            }
        }
    },
    "installed_plugins": {
        "com.phonegap.plugins.barcodescanner": {
            "PACKAGE_NAME": "com.mobile.ciki"
        },
        "nl.x-services.plugins.socialsharing": {
            "PACKAGE_NAME": "com.mobile.ciki"
        },
        "org.transistorsoft.cordova.background-geolocation": {
            "PACKAGE_NAME": "com.mobile.ciki"
        },
        "de.appplant.cordova.plugin.background-mode": {
            "PACKAGE_NAME": "com.mobile.ciki"
        }
    },
    "dependent_plugins": {
        "org.apache.cordova.geolocation": {
            "PACKAGE_NAME": "com.mobile.ciki"
        },
        "org.apache.cordova.dialogs": {
            "PACKAGE_NAME": "com.mobile.ciki"
        },
        "org.apache.cordova.device": {
            "PACKAGE_NAME": "com.mobile.ciki"
        }
    }
}